[
null,
{"id":1,"battlerName":"JeanneCombat","characterIndex":0,"characterName":"JeanneWalk","classId":1,"equips":[10,0,0,6,0],"faceIndex":0,"faceName":"JeanneFace","traits":[{"code":22,"dataId":0,"value":0.99}],"initialLevel":1,"maxLevel":20,"name":"Jeanne","nickname":"D'arc","note":"","profile":"Elle a survécu au buché quand son \"ami\" Gilles de Rais a fait un étrange pacte \navec un démon, en 2020 Jeanne est une vampire qui lutte pour rester humaine.  "},
{"id":2,"battlerName":"SoneaCombat","characterIndex":0,"characterName":"SoneaWalk","classId":2,"equips":[5,0,0,5,0],"faceIndex":0,"faceName":"SoneaFace","traits":[{"code":22,"dataId":0,"value":0.8}],"initialLevel":1,"maxLevel":20,"name":"Sonea","nickname":"Fonea","note":"","profile":"A ECRIRE"},
{"id":3,"battlerName":"GontranCombat","characterIndex":0,"characterName":"GontranWalk","classId":1,"equips":[0,0,0,0,0],"faceIndex":0,"faceName":"GontranFace","traits":[],"initialLevel":2,"maxLevel":5,"name":"Gontran","nickname":"Le clodo","note":"","profile":"A ECRIRE"},
{"id":4,"battlerName":"","characterIndex":0,"characterName":"","classId":1,"equips":[0,0,0,0,0],"faceIndex":0,"faceName":"","traits":[],"initialLevel":1,"maxLevel":99,"name":"","nickname":"","note":"","profile":""}
]