{
"autoplayBgm":false,"autoplayBgs":false,"battleback1Name":"","battleback2Name":"","bgm":{"name":"","pan":0,"pitch":100,"volume":90},"bgs":{"name":"","pan":0,"pitch":100,"volume":90},"disableDashing":false,"displayName":"Grande Rue","encounterList":[],"encounterStep":30,"height":30,"note":"\n  <Save Event Locations>","parallaxLoopX":false,"parallaxLoopY":false,"parallaxName":"","parallaxShow":true,"parallaxSx":0,"parallaxSy":0,"scrollType":0,"specifyBattleback":false,"tilesetId":5,"width":30,
"data":[1554,8147,8146,8150,8159,8147,8146,8150,1554,1554,2992,1552,1552,1552,1552,2664,2652,2652,2652,2652,2652,2652,2652,2652,2652,2632,2624,2624,2624,2624,1554,8153,8152,8156,7343,8153,8152,8156,1554,1554,2992,6978,6964,6964,6964,6964,6964,6964,6964,6964,6964,6964,6964,6980,1552,2640,2624,2624,2624,2624,1554,1554,1554,1554,3002,1554,1554,1554,1554,1554,2992,6960,6944,6944,6944,6944,6944,6944,6944,6944,6944,6944,6944,6968,1552,2640,2624,2624,2624,2624,2993,2983,2993,2993,2991,2993,2993,2993,2993,2993,2987,6984,6972,6972,6972,6972,6972,6972,6972,6952,6944,6944,6944,6968,1552,2640,2624,2624,2624,2624,1552,2992,1552,1552,1552,1552,1552,1552,1552,1552,2992,7331,7330,7330,7330,7330,7330,7330,7330,6960,6944,6944,6944,6968,1552,2640,2624,2624,2624,2624,1552,2992,1552,6114,6100,6100,6100,6100,6116,1552,2992,7329,7328,7328,7328,7328,7328,7328,7328,6960,6944,6944,6944,6968,1552,2640,2624,2624,2624,2624,1552,2992,1552,6096,6080,6080,6080,6080,6104,1552,2992,7329,7328,7328,7328,7328,7328,7328,7328,6960,6944,6944,6944,6968,1552,2640,2624,2624,2624,2624,1552,2992,1552,6096,6080,6080,6080,6080,6104,1552,2992,7337,7336,7336,7336,7336,7336,7336,7336,6960,6944,6944,6944,6968,1552,2640,2624,2624,2624,2624,1552,2992,1552,6120,6108,6108,6108,6108,6118,1552,2979,2993,2993,2993,2993,2993,2993,2993,2997,6960,6944,6944,6944,6968,1552,2640,2624,2624,2624,2624,1552,3004,1552,8099,8098,8098,8098,8098,8102,1552,2992,1552,1552,1552,1552,1552,1552,1552,2992,6960,6944,6944,6944,6968,1552,2640,2624,2624,2624,2624,1552,1552,1552,8097,8096,8096,8096,8096,8100,1552,2992,1552,1552,1552,1552,1552,1552,1552,2992,6960,6944,6944,6944,6968,1552,2640,2624,2624,2624,2624,1552,1552,1552,8097,8096,8096,8096,8096,8100,1552,2992,1552,1552,1552,1552,1552,1552,1552,2992,6960,6944,6944,6944,6968,1552,2640,2624,2624,2624,2624,1552,1552,1552,8097,8096,8096,8096,8096,8100,1552,2992,1552,1552,1552,1552,1552,1552,1552,2992,6960,6944,6944,6944,6968,1552,2640,2624,2624,2624,2624,1552,1552,1552,8097,8096,8096,8096,8096,8100,1552,2992,1552,1552,1552,1552,1552,1552,1552,2992,6960,6944,6944,6944,6968,1552,2664,2652,2652,2652,2652,1552,1552,1552,8097,8096,8096,8096,8096,8100,1552,2992,1552,1552,1552,1552,1552,1552,1552,2992,6984,6972,6972,6972,6982,1552,1552,1552,1552,1552,1552,1552,1552,1552,8097,8096,8096,8096,8096,8100,1552,2992,1552,1552,1552,1552,1552,1552,1552,2992,7331,7330,7330,7330,7334,1552,1552,1552,1552,1552,1552,1552,1552,1552,8105,8104,8104,8104,8104,8108,1552,2992,1552,1552,1552,1552,1552,1552,1552,2992,7329,7328,7328,7328,7332,1552,1552,1552,1552,1552,1552,1552,1552,1552,1552,1552,1552,3002,1552,1552,1552,2992,1552,1552,1552,3002,1552,1552,1552,2992,7329,7328,7328,7328,7332,1552,1552,1552,1552,1552,1552,1552,1552,1552,1552,1552,1552,3001,2993,2993,2993,2991,2993,2993,2993,2991,2993,2993,2993,2999,7337,7336,7336,7336,7340,1552,1552,1552,1552,1552,1552,1541,1541,1541,1541,1541,1541,1541,1541,1541,1541,1541,1541,1541,1541,1541,1541,1541,1541,1541,1541,1541,1541,1541,1541,1541,1541,1541,1541,1541,1541,1550,1550,1550,1550,1550,1550,1550,1550,1550,1550,1550,1550,1550,1550,1550,1550,1550,1550,1550,1550,1550,1550,1550,1550,1550,1550,1550,1550,1550,1550,1550,1550,1550,1550,1550,1550,1550,1550,1550,1550,1550,1550,1550,1550,1550,1550,1550,1550,1550,1550,1550,1550,1550,1550,1550,1550,1550,1550,1550,1550,1550,1550,1550,1550,1550,1550,1550,1550,1550,1550,1550,1550,1550,1550,1550,1550,1550,1550,1550,1550,1550,1550,1550,1550,1550,1550,1550,1550,1550,1550,1549,1549,1549,1549,1549,1549,1549,1549,1549,1549,1549,1549,1549,1549,1549,1549,1549,1549,1549,1549,1549,1549,1549,1549,1549,1549,1549,1549,1549,1549,1552,1552,1552,1552,1552,1552,1552,1552,1552,1552,1552,1552,1552,1552,1552,1552,1552,1552,1552,1552,1552,1552,1552,1552,1552,1552,1552,1552,1552,1552,1552,1552,1552,1552,1552,1552,1552,1552,1552,1552,1552,1552,1552,1552,1552,1552,1552,1552,1552,1552,1552,1552,1552,1552,1552,1552,1552,1552,1552,1552,2644,2644,2644,2644,2644,2644,2644,2644,2644,2644,2644,2644,2644,2644,2644,2644,2644,2644,2644,2644,2644,2644,2644,2644,2644,2644,2644,2644,2644,2644,2624,2624,2624,2624,2624,2624,2624,2624,2624,2624,2624,2624,2624,2624,2624,2624,2624,2624,2624,2624,2624,2624,2624,2624,2624,2624,2624,2624,2624,2624,2624,2624,2624,2624,2624,2624,2624,2624,2624,2624,2624,2624,2624,2624,2624,2624,2624,2624,2624,2624,2624,2624,2624,2624,2624,2624,2624,2624,2624,2624,2624,2624,2624,2624,2624,2624,2624,2624,2624,2624,2624,2624,2624,2624,2624,2624,2624,2624,2624,2624,2624,2624,2624,2624,2624,2624,2624,2624,2624,2624,0,0,0,0,0,0,0,0,0,0,0,0,3532,0,0,3096,3084,3084,3084,3084,3084,3084,3084,3084,3084,3064,3056,3056,3056,3056,0,0,0,0,0,0,0,0,0,0,0,0,0,0,0,0,0,0,0,0,0,0,0,0,0,3072,3056,3056,3056,3056,0,0,0,0,0,0,0,0,0,0,0,0,0,0,0,0,0,0,0,0,0,0,0,0,0,3072,3056,3056,3056,3056,0,0,0,0,0,0,0,0,0,0,0,0,0,0,0,0,0,0,0,0,0,0,0,0,0,3072,3056,3056,3056,3056,0,0,0,0,0,0,0,0,0,0,0,0,0,0,0,0,0,0,0,0,0,0,0,0,0,3072,3056,3056,3056,3056,0,0,0,0,0,0,0,0,0,0,0,0,0,0,0,0,0,0,0,0,0,0,0,0,0,3072,3056,3056,3056,3056,0,0,0,0,0,0,0,0,0,0,0,0,0,0,0,0,0,0,0,0,0,0,0,0,0,3072,3056,3056,3056,3056,0,0,0,0,0,0,0,0,0,0,0,0,0,0,0,0,0,0,0,0,0,0,0,0,0,3072,3056,3056,3056,3056,0,0,0,0,0,0,0,0,0,0,0,0,0,0,0,0,0,0,0,0,0,0,0,0,0,3072,3056,3056,3056,3056,0,0,0,0,0,0,0,0,0,0,0,3810,3796,3796,3796,3796,3796,3812,0,0,0,0,0,0,0,3072,3056,3056,3056,3056,0,0,0,0,0,0,0,0,0,0,0,3792,3776,3776,3776,3776,3776,3800,0,0,0,0,0,0,0,3072,3056,3056,3056,3056,0,3866,0,0,0,0,0,0,0,0,0,3792,3776,3776,3776,3776,3776,3800,0,0,0,0,0,0,0,3072,3056,3056,3056,3056,0,3868,0,0,0,0,0,0,0,0,0,3792,3776,3776,3776,3776,3776,3800,0,0,0,0,0,0,0,3072,3056,3056,3056,3056,0,0,0,0,0,0,0,0,0,0,0,3792,3776,3776,3776,3776,3776,3800,0,0,0,0,0,0,0,3096,3084,3084,3084,3084,0,0,0,0,0,0,0,0,0,0,0,3792,3776,3776,3776,3776,3776,3800,0,0,0,0,0,0,0,0,0,0,0,0,0,0,0,0,0,0,0,0,0,0,0,3792,3776,3776,3776,3776,3776,3800,0,0,0,0,0,0,0,0,0,0,0,0,0,0,0,0,0,0,0,0,0,0,0,3816,3804,3804,3804,3804,3804,3814,0,0,0,0,0,0,0,0,0,0,0,0,0,0,0,0,0,0,0,0,0,0,0,0,0,0,0,0,0,0,0,0,0,0,0,0,0,0,0,0,0,0,0,0,0,0,0,0,0,0,0,0,0,0,0,0,0,0,0,0,0,0,0,0,0,0,0,0,0,0,0,0,0,0,0,0,0,0,0,0,0,0,0,0,0,0,0,0,0,0,0,0,0,0,0,0,0,0,0,0,0,0,0,0,0,0,0,0,0,0,0,0,0,0,0,0,0,0,0,0,0,0,0,0,0,0,0,0,0,0,0,0,0,0,0,0,0,0,0,0,0,0,0,0,0,0,0,0,0,0,0,0,0,0,0,0,0,0,0,0,0,0,0,0,0,0,0,0,0,0,0,0,0,0,0,0,0,0,0,0,0,0,0,0,0,0,0,0,0,0,0,0,0,0,0,0,0,0,0,0,0,0,0,0,0,0,0,0,0,0,0,0,0,0,0,0,0,0,0,0,0,0,0,0,0,0,0,0,0,0,0,0,0,0,0,0,0,0,0,0,0,0,0,0,0,0,0,0,0,0,0,0,0,0,0,0,0,0,0,0,0,0,0,0,0,0,0,0,0,0,0,0,0,0,0,0,0,0,0,0,0,0,0,0,0,0,0,0,0,0,0,0,0,0,0,0,0,0,0,0,0,0,0,0,0,0,0,0,0,0,0,0,0,0,0,0,0,0,0,0,0,0,0,0,0,0,0,0,0,0,0,0,0,0,0,0,0,0,0,0,0,0,0,0,0,0,0,0,0,0,0,0,0,0,0,0,0,0,0,0,0,0,0,0,0,0,0,0,0,0,0,0,0,0,0,0,0,0,0,0,0,0,0,0,0,0,0,0,0,0,0,0,0,0,0,0,0,0,0,0,0,0,0,0,64,0,56,0,64,0,0,0,0,0,0,0,0,0,0,0,0,0,0,0,0,0,0,0,0,0,0,0,0,488,72,0,43,0,72,490,0,0,0,0,0,0,0,0,0,0,0,0,0,0,0,0,0,0,0,0,0,0,0,0,0,0,0,0,0,0,0,0,0,0,0,0,0,0,0,0,0,0,0,0,0,0,0,0,0,0,0,0,0,0,0,0,0,0,0,0,0,0,0,0,0,0,0,0,0,0,0,0,0,0,0,0,0,0,0,0,0,0,0,0,0,0,0,0,0,0,0,0,0,0,0,0,0,0,0,0,0,0,0,0,0,0,0,0,0,0,0,0,0,0,0,0,0,0,0,0,0,0,0,64,64,64,64,64,64,64,64,0,0,0,0,0,0,0,0,0,0,0,0,0,0,0,0,0,0,0,0,0,0,72,72,72,72,72,72,72,72,0,0,0,0,0,0,0,0,0,0,0,0,0,0,0,0,0,0,0,0,0,0,0,0,72,0,0,0,0,0,0,0,0,0,0,0,0,0,0,0,0,0,0,0,0,0,0,0,0,0,0,0,0,0,0,0,0,0,0,0,0,0,0,0,0,0,0,0,0,0,0,0,0,0,0,0,0,0,0,0,0,0,0,307,307,307,307,307,0,0,0,0,0,0,0,0,0,0,0,0,0,0,0,0,0,0,0,0,0,0,0,0,0,0,0,0,0,0,0,0,0,0,0,0,0,0,0,0,0,0,0,0,0,0,0,0,0,0,0,0,0,0,0,0,0,0,0,0,0,0,0,0,0,0,0,0,0,0,0,0,0,0,0,0,0,0,0,0,0,0,0,0,0,0,0,0,0,0,0,0,0,0,0,0,0,0,0,0,0,0,0,0,0,0,0,0,0,0,0,0,0,0,0,0,0,0,0,0,0,0,0,0,0,0,0,0,0,0,0,0,0,0,0,0,0,0,0,0,0,0,0,0,0,0,0,0,0,0,0,0,0,0,0,0,0,0,0,0,0,0,0,0,0,0,0,0,0,0,0,0,0,0,0,0,0,0,0,0,0,0,0,0,0,0,0,0,0,0,0,0,0,0,165,0,0,0,0,0,0,0,0,0,0,0,0,0,0,0,0,0,0,0,0,0,0,0,0,0,0,0,0,0,0,0,0,0,0,0,0,335,0,0,0,0,0,0,0,0,0,0,0,0,0,0,0,0,475,0,0,0,0,0,0,0,0,0,0,0,0,0,0,0,0,0,0,0,0,0,0,0,0,0,43,0,0,0,0,0,0,0,0,0,0,0,0,0,0,0,0,0,0,0,0,0,0,0,0,0,0,0,0,0,0,189,190,0,0,0,0,0,0,0,0,0,0,0,0,0,0,0,0,0,0,0,0,0,0,0,0,0,0,0,0,0,0,0,0,0,0,0,0,0,0,0,0,0,0,0,0,0,0,0,0,0,0,52,0,0,0,0,0,0,0,0,0,0,0,0,0,0,0,0,0,0,0,0,0,0,0,0,0,0,0,0,0,0,0,0,0,0,0,0,0,0,0,0,0,0,0,0,0,0,0,0,0,0,0,0,0,0,0,0,0,0,0,0,0,0,0,0,0,0,0,0,0,0,0,0,0,0,0,0,0,0,0,0,0,0,0,0,0,0,0,0,0,0,0,0,0,0,0,0,0,0,0,0,0,0,0,0,0,0,0,0,0,0,0,0,0,0,0,0,0,0,0,0,0,0,0,0,0,0,0,0,0,0,0,0,0,0,0,0,0,0,0,0,0,0,0,0,0,0,0,0,0,0,0,0,0,0,0,0,0,0,0,0,0,0,0,0,0,0,0,0,0,0,0,0,0,0,0,0,0,0,0,0,0,0,0,0,0,0,0,0,0,0,0,0,0,0,0,0,0,0,0,0,0,0,0,0,0,0,0,0,0,0,0,0,0,0,0,0,0,0,0,0,0,0,0,0,0,0,0,0,0,0,0,0,0,0,0,0,0,0,0,0,0,0,0,0,0,0,0,0,0,0,0,0,0,0,0,0,480,481,482,278,480,481,482,143,0,0,0,0,0,0,0,0,0,0,0,0,0,0,0,143,0,0,0,0,0,0,142,489,490,286,488,489,142,151,0,0,0,0,0,0,0,0,0,0,0,0,0,0,0,151,0,0,0,0,0,0,150,0,0,0,0,0,150,133,171,0,0,0,0,0,0,0,0,0,0,0,0,0,0,0,0,0,0,0,0,0,0,0,0,0,0,0,0,0,0,0,0,0,0,0,0,0,0,0,0,0,0,0,0,0,0,0,0,0,0,0,0,0,0,0,0,0,0,0,0,0,64,64,64,64,64,64,64,64,0,0,0,0,0,0,0,0,0,0,0,142,0,142,0,0,0,0,0,0,0,0,72,72,72,72,72,72,72,72,0,0,0,0,0,0,0,0,0,0,0,150,0,150,0,0,0,0,0,0,0,0,64,64,64,64,64,64,64,64,0,0,0,0,0,0,0,0,0,0,0,0,0,0,0,0,0,0,0,0,0,0,72,72,120,72,72,72,72,72,0,0,0,0,0,0,0,0,0,0,0,46,0,0,0,0,0,0,0,0,0,0,0,0,0,0,0,0,0,0,0,0,0,0,0,0,0,0,0,0,0,165,0,165,0,0,0,0,0,0,0,0,306,142,85,277,85,142,308,0,0,0,0,0,0,196,0,0,0,0,0,46,0,0,0,0,0,0,0,0,0,0,316,150,93,285,93,150,316,0,0,0,0,0,0,204,0,0,0,0,0,0,0,207,0,0,0,0,0,0,0,0,316,171,296,0,0,288,316,0,0,0,0,0,0,0,0,0,0,0,0,0,0,0,0,0,0,0,0,0,0,0,316,0,272,273,274,270,316,0,0,0,0,0,0,89,0,0,0,0,0,125,126,191,0,0,0,0,0,0,0,0,316,288,280,281,282,296,316,0,0,0,0,0,0,97,0,0,0,0,0,119,0,0,0,0,0,0,0,0,0,0,316,142,0,0,0,142,316,0,0,0,0,0,0,0,0,0,0,0,0,127,0,46,0,0,0,0,0,0,0,0,316,150,296,0,288,150,316,0,64,64,64,64,64,459,459,459,459,459,459,165,315,165,116,139,0,43,0,0,0,0,322,307,324,0,322,307,324,0,72,72,72,72,72,467,467,467,467,467,467,85,0,186,124,147,85,0,134,135,133,0,292,293,294,0,292,293,294,0,64,64,278,64,64,475,85,475,475,475,475,93,0,0,0,0,93,0,0,0,0,0,0,0,0,0,0,0,0,0,72,72,286,72,72,0,93,0,351,0,0,0,0,205,206,0,0,0,0,197,198,0,0,0,0,189,190,0,0,0,0,0,0,205,206,0,0,0,0,0,0,0,0,0,0,0,0,0,0,0,0,0,0,0,0,0,0,0,0,0,0,0,0,0,0,0,0,0,0,0,0,52,52,52,52,52,52,52,52,52,52,52,52,52,52,199,52,52,52,52,52,52,52,52,52,52,52,52,52,52,52,0,0,0,0,0,0,0,0,0,0,0,0,0,0,0,0,0,0,0,0,0,0,0,0,0,0,0,0,0,0,85,0,189,190,0,85,0,197,198,0,85,0,205,206,0,85,0,189,190,0,85,0,197,198,0,85,0,0,0,0,93,0,0,0,0,93,0,0,0,0,93,0,0,0,0,93,0,0,0,0,93,0,0,0,0,93,0,0,0,0,0,0,0,0,0,0,0,0,0,0,0,0,0,0,0,0,0,0,0,0,0,0,0,0,0,0,0,0,0,0,0,0,0,0,0,0,0,0,0,0,0,0,0,0,0,0,0,0,0,0,0,0,0,0,0,0,0,0,0,0,0,0,0,0,289,0,0,0,0,0,0,0,0,0,0,0,0,0,0,0,0,0,0,0,0,0,0,0,0,0,0,0,0,0,0,0,0,0,0,0,0,0,0,0,0,0,0,0,0,0,289,0,0,0,0,0,0,0,0,0,0,0,0,0,0,0,0,0,0,0,0,0,0,0,0,0,0,0,0,0,0,0,0,0,0,0,0,0,0,0,0,0,0,0,0,0,0,0,5,0,0,0,0,0,0,0,0,0,0,0,0,0,0,0,0,0,0,0,0,0,0,0,0,0,0,0,0,0,5,0,0,0,0,0,0,0,0,0,0,0,0,0,0,0,0,0,0,0,0,0,0,0,0,0,0,0,0,0,0,0,0,0,0,0,0,0,0,0,0,0,0,0,0,0,5,0,0,0,0,0,0,0,0,0,0,0,0,0,0,0,0,0,0,0,0,0,0,0,0,0,0,0,0,0,5,0,0,0,0,0,0,0,0,0,0,0,0,0,0,0,0,0,0,0,0,0,0,0,0,0,0,0,0,0,5,0,0,0,0,0,0,0,0,0,0,0,0,0,0,0,0,0,0,0,0,0,0,0,0,0,0,0,0,0,5,0,0,0,0,0,0,0,0,0,0,0,0,0,0,5,0,0,0,0,0,0,0,0,0,0,0,0,0,0,5,0,0,0,0,0,0,0,0,0,0,0,0,0,0,5,0,0,0,0,0,0,0,0,0,0,0,0,0,0,5,0,0,0,0,0,0,0,0,0,0,0,0,0,0,5,0,0,0,0,0,0,0,0,0,0,0,0,0,0,5,0,0,0,0,0,0,0,0,0,0,0,0,0,0,5,0,0,0,0,0,0,0,0,0,0,0,0,0,0,5,0,0,0,0,0,0,0,0,0,0,0,0,0,0,5,0,0,0,0,0,0,0,0,0,0,0,0,0,0,5,0,0,0,0,0,0,0,0,0,0,0,0,0,0,5,0,0,0,0,0,0,0,0,0,0,0,0,0,0,5,0,0,0,0,0,0,0,0,0,0,0,0,0,0,5,0,0,0,0,0,0,0,0,0,0,0,0,0,0,5,0,0,0,0,0,0,0,0,0,0,0,0,0,0,5,0,0,0,0,0,0,0,0,0,0,0,0,0,0,5,0,0,0,0,0,0,0,0,0,0,0,0,0,0,5,0,0,0,0,0,0,0,0,0,0,0,0,0,0,5,0,0,0,0,0,0,0,0,0,0,0,0,0,0,5,0,0,0,0,0,0,0,0,0,0,0,0,0,0,5,0,0,0,0,0,0,0,0,0,0,0,0,0,0,5,0,0,0,0,0,0,0,0,0,0,0,0,0,0,5,0,0,0,0,0,0,0,0,0,0,0,0,0,0,0,0,0,0,0,0,0,0,0,0,0,0,0,0,0,5,0,0,0,0,0,0,0,0,0,0,0,0,0,0,0,0,0,0,0,0,0,0,0,0,0,0,0,0,0,5,0,0,0,0,0,0,0,0,0,0,0,0,0,0,0,0,0,0,0,0,0,0,0,0,0,0,0,0,0,0,0,0,0,0,0,0,0,0,0,0,0,0,0,0,0,0,0,0,0,0,0,0,0,0,0,0,0,0,0,0,0,0,0,0,0,0,0,0,0,0,0,0,0,0,0,0,0,0,0,0,0,0,0,0,0,0,0,0,0,0,0,0,0,0,0,0,0,0,0,0,0,0,0,0,0,0,0,0,0,0,0,0,0,0,0,0,0,0,0,0,0,0,0,0,0,0,0,0,0,0,0,0,0,0,0,0,0,0,0,0,0,0,0,0,0,0,0,0,0,0,0,0,0,0,0,0,0,0,0,0,0,0,0,0,0,0,0,0,0,0,0,0,0,0,0,0,0,0,0,0,0,0,0,0,0,0,0,0,0,0,0,0,0,0,0,0,0,0,0,0,0,0,0,0,0,0,0,0,0,0,0,0,0,0,0,0,0,0,0,0,0,0,0,0,0,0,0,0,0,0,0,0,0,0,0,0,0,0,0,0,0,0,0,0,0,0,0,0,0,0,0,0,0,0,0,0,0,0,0,0,0,0,0,0,0,0,0,0,0,0,0,0,0,0,0,0,0,0,0,0,0,0,0,0,0,0,0,0,0,0,0,0,0,0,0,0,0,0,0,0,0,0,0,0,0,0,0,0,0,0,0,0,0,0,0,0,0,0,0,0,0,0,0,0,0,0,0,0,0,0,0,0,0,0,0,0,0,0,0,0,0,0,0,0,0,0,0,0,0,0,0,0,0,0,0,0,0,0,0,0,0,0,0,0,0,0,0,0,0,0,0,0,0,0,0,0,0,0,0,0,0,0,0,0,0,0,0,0,0,0,0,0,0,0,0,0,0,0,0,0,0,0,0,0,0,0,0,0,0,0,0,0,0,0,0,0,0,0,0,0,0,0,0,0,0,0,0,0,0,0,0,0,0,0,0,0,0,0,0,0,0,0,0,0,0,0,0,0,0,0,0,0,0,0,0,0,0,0,0,0,0,0,0,0,0,0,0,0,0,0,0,0,0,0,0,0,0,0,0,0,0,0,0,0,0,0,0,0,0,0,0,0,0,0,0,0,0,0,0,0,0,0,0,0,0,0,0,0,0,0,0,0,0,0,0,0,0,0,0,0,0,0,0,0,0,0,0,0,0,0,0,0,0,0,0,0,0,0,0,0,0,0,0,0,0,0,0,0,0,0,0,0,0,0,0,0,0,0,0,0,0,0,0,0,0,0,0,0,0,0,0,0,0,0,0,0,0,0,0,0,0,0,0,0,0,0,0,0,0,0,0,0,0,0,0,0,0,0,0,0,0,0,0,0,0,0,0,0,0,0,0,0,0,0,0,0,0,0,0,0,0,0,0,0,0,0,0,0,0,0,0,0,0,0,0,0,0,0,0,0,0,0,0,0,0,0,0,0,0,0,0,0,0,0,0,0,0,0,0,0,0,0,0,0,0,0,0,0,0,0,0,0,0,0,0,0,0,0,0,0,0,0,0,0,0,0,0,0,0,0,0,0,0,0,0,0,0,0,0,0,0,0,0,0,0,0,0,0,0,0,0,0,0,0,0,0,0,0,0,0,0,0,0,0,0,0,0,0,0,0,0,0,0,0,0,0,0,0,0,0,0,0,0,0,0,0,0,0,0,0,0,0,0,0,0,0,0,0,0,0,0,0,0,0,0,0,0,0,0,0,0,0,0,0,0,0,0,0,0,0,0,0,0,0,0,0,0,0,0,0,0,0,0,0,0,0,0,0,0,0,0,0,0,0,0,0,0,0,0,0,0,0,0,0,0,0,0,0,0,0,0,0,0,0,0,0,0,0,0,0,0,0,0,0,0,0,0,0,0,0,0,0,0,0,0,0,0,0,0,0,0,0,0,0,0,0,0,0,0,0,0,0,0,0,0,0,0,0,0,0,0,0,0,0,0,0,0,0,0,0,0,0,0,0,0,0,0,0,0,0,0,0,0,0,0,0,0,0,0,0,0,0,0,0,0,0,0,0,0,0,0,0,0,0,0,0,0,0,0,0,0,0,0,0,0,0,0,0,0,0,0,0,0,0,0,0,0,0,0,0,0,0,0,0,0,0,0,0,0,0,0,0,0,0,0,0,0,0,0,0,0,0,0,0,0,0,0,0,0,0,0,0,0,0,0,0,0,0,0,0,0,0,0,0,0,0,0,0,0,0,0,0,0,0,0,0,0,0,0,0,0,0,0,0,0,0,0,0,0,0,0,0,0,0,0,0,0,0,0,0,0,0,0,0,0,0,0,0,0,0,0,0,0,0,0,0,0,0,0,0,0,0,0,0,0,0,0,0,0,0,0,0,0,0,0,0,0,0,0,0,0,0,0,0,0,0,0,0,0,0,0,0,0,0,0,0,0,0,0,0,0,0,0,0,0,0,0,0,0,0,0,0,0,0,0,0,0,0,0,0,0,0,0,0,0,0,0,0,0,0,0,0,0,0,0,0,0,0,0,0,0,0,0,0,0,0,0,0,0,0,0,0,0,0,0,0,0,0,0,0,0,0,0,0,0,0,0,0,0,0,0,0,0,0,0,0,0,0,0,0,0,0,0,0,0,0,0,0,0,0,0,0,0,0,0,0,0,0,0,0,0,0,0,0,0,0,0,0,0,0,0,0,0,0,0,0,0,0,0,0,0,0,0,0,0,0,0,0,0,0,0,0,0,0,0,0,0,0,0,0,0,0,0,0,0,0,0,0,0,0,0,0,0,0,0],
"events":[
null,
{"id":1,"name":"EV001","note":"","pages":[{"conditions":{"actorId":1,"actorValid":false,"itemId":1,"itemValid":false,"selfSwitchCh":"A","selfSwitchValid":false,"switch1Id":1,"switch1Valid":false,"switch2Id":1,"switch2Valid":false,"variableId":1,"variableValid":false,"variableValue":0},"directionFix":false,"image":{"characterIndex":4,"characterName":"!SF_Door1","direction":2,"pattern":0,"tileId":0},"list":[{"code":111,"indent":0,"parameters":[4,2,0]},{"code":101,"indent":1,"parameters":["JeanneFace",0,0,2]},{"code":401,"indent":1,"parameters":["On va où ? "]},{"code":102,"indent":1,"parameters":[["Coloc des vampires","Appartement d'Ulrich","Resté ici "],2,0,2,0]},{"code":402,"indent":1,"parameters":[0,"Coloc des vampires"]},{"code":101,"indent":2,"parameters":["JeanneFace",0,0,2]},{"code":401,"indent":2,"parameters":["( Allons-y. )"]},{"code":250,"indent":2,"parameters":[{"name":"Open1","pan":0,"pitch":100,"volume":90}]},{"code":205,"indent":2,"parameters":[0,{"list":[{"code":17},{"code":15,"parameters":[3]},{"code":18},{"code":15,"parameters":[3]},{"code":19},{"code":37},{"code":0}],"repeat":false,"skippable":false,"wait":true}]},{"code":505,"indent":2,"parameters":[{"code":17}]},{"code":505,"indent":2,"parameters":[{"code":15,"parameters":[3]}]},{"code":505,"indent":2,"parameters":[{"code":18}]},{"code":505,"indent":2,"parameters":[{"code":15,"parameters":[3]}]},{"code":505,"indent":2,"parameters":[{"code":19}]},{"code":505,"indent":2,"parameters":[{"code":37}]},{"code":205,"indent":2,"parameters":[-1,{"list":[{"code":12},{"code":0}],"repeat":false,"skippable":true,"wait":true}]},{"code":505,"indent":2,"parameters":[{"code":12}]},{"code":250,"indent":2,"parameters":[{"name":"Move1","pan":0,"pitch":100,"volume":90}]},{"code":201,"indent":2,"parameters":[0,1,21,25,0,0]},{"code":0,"indent":2,"parameters":[]},{"code":402,"indent":1,"parameters":[1,"Appartement d'Ulrich"]},{"code":101,"indent":2,"parameters":["JeanneFace",0,0,2]},{"code":401,"indent":2,"parameters":["( Allons-y. )"]},{"code":250,"indent":2,"parameters":[{"name":"Open1","pan":0,"pitch":100,"volume":90}]},{"code":205,"indent":2,"parameters":[0,{"list":[{"code":17},{"code":15,"parameters":[3]},{"code":18},{"code":15,"parameters":[3]},{"code":19},{"code":37},{"code":0}],"repeat":false,"skippable":false,"wait":true}]},{"code":505,"indent":2,"parameters":[{"code":17}]},{"code":505,"indent":2,"parameters":[{"code":15,"parameters":[3]}]},{"code":505,"indent":2,"parameters":[{"code":18}]},{"code":505,"indent":2,"parameters":[{"code":15,"parameters":[3]}]},{"code":505,"indent":2,"parameters":[{"code":19}]},{"code":505,"indent":2,"parameters":[{"code":37}]},{"code":205,"indent":2,"parameters":[-1,{"list":[{"code":12},{"code":0}],"repeat":false,"skippable":true,"wait":true}]},{"code":505,"indent":2,"parameters":[{"code":12}]},{"code":250,"indent":2,"parameters":[{"name":"Move1","pan":0,"pitch":100,"volume":90}]},{"code":201,"indent":2,"parameters":[0,3,21,24,0,0]},{"code":0,"indent":2,"parameters":[]},{"code":402,"indent":1,"parameters":[2,"Resté ici "]},{"code":0,"indent":2,"parameters":[]},{"code":404,"indent":1,"parameters":[]},{"code":0,"indent":1,"parameters":[]},{"code":411,"indent":0,"parameters":[]},{"code":101,"indent":1,"parameters":["JeanneFace",0,0,2]},{"code":401,"indent":1,"parameters":["( Jeanne... Jeanne. )"]},{"code":101,"indent":1,"parameters":["JeanneFace",0,0,2]},{"code":401,"indent":1,"parameters":["( Je sais qu'elle est pas facile comme gamine... "]},{"code":401,"indent":1,"parameters":["Mais je ne peux pas la laisser ici. )"]},{"code":101,"indent":1,"parameters":["JeanneFace",0,0,2]},{"code":401,"indent":1,"parameters":["( Je dois aller chercher \\c[2]Sonea\\c[0] dans "]},{"code":401,"indent":1,"parameters":["\\c[3]sa chambre\\c[0]. )"]},{"code":205,"indent":1,"parameters":[-1,{"list":[{"code":4,"indent":null},{"code":4,"indent":null},{"code":4,"indent":null},{"code":0}],"repeat":false,"skippable":false,"wait":true}]},{"code":505,"indent":1,"parameters":[{"code":4,"indent":null}]},{"code":505,"indent":1,"parameters":[{"code":4,"indent":null}]},{"code":505,"indent":1,"parameters":[{"code":4,"indent":null}]},{"code":0,"indent":1,"parameters":[]},{"code":412,"indent":0,"parameters":[]},{"code":0,"indent":0,"parameters":[]}],"moveFrequency":3,"moveRoute":{"list":[{"code":0,"parameters":[]}],"repeat":true,"skippable":false,"wait":false},"moveSpeed":3,"moveType":0,"priorityType":1,"stepAnime":false,"through":false,"trigger":1,"walkAnime":false}],"x":6,"y":16},
{"id":2,"name":"EV002","note":"","pages":[{"conditions":{"actorId":1,"actorValid":false,"itemId":1,"itemValid":false,"selfSwitchCh":"A","selfSwitchValid":false,"switch1Id":1,"switch1Valid":false,"switch2Id":1,"switch2Valid":false,"variableId":1,"variableValid":false,"variableValue":0},"directionFix":false,"image":{"characterIndex":4,"characterName":"!SF_Door1","direction":2,"pattern":0,"tileId":0},"list":[{"code":101,"indent":0,"parameters":["JeanneFace",0,0,2]},{"code":401,"indent":0,"parameters":["Heu... Je connais pas cet immmeuble. "]},{"code":0,"indent":0,"parameters":[]}],"moveFrequency":3,"moveRoute":{"list":[{"code":0,"parameters":[]}],"repeat":true,"skippable":false,"wait":false},"moveSpeed":3,"moveType":0,"priorityType":1,"stepAnime":false,"through":false,"trigger":1,"walkAnime":false}],"x":21,"y":18},
{"id":3,"name":"EV003","note":"","pages":[{"conditions":{"actorId":1,"actorValid":false,"itemId":1,"itemValid":false,"selfSwitchCh":"A","selfSwitchValid":false,"switch1Id":1,"switch1Valid":false,"switch2Id":1,"switch2Valid":false,"variableId":1,"variableValid":false,"variableValue":0},"directionFix":false,"image":{"tileId":0,"characterName":"People1","direction":8,"pattern":0,"characterIndex":7},"list":[{"code":101,"indent":0,"parameters":["SoneaFace",3,0,2]},{"code":401,"indent":0,"parameters":["Bonsoir madame ! "]},{"code":213,"indent":0,"parameters":[0,1,false]},{"code":101,"indent":0,"parameters":["People1",7,0,2]},{"code":401,"indent":0,"parameters":["Bon... Oh mais c'est quoi cette tenue ?"]},{"code":401,"indent":0,"parameters":["Je vois votre nombrile Mademoiselle ! "]},{"code":401,"indent":0,"parameters":["Quel exemple donnez-vous à cette petite "]},{"code":401,"indent":0,"parameters":["fille ? "]},{"code":101,"indent":0,"parameters":["JeanneFace",0,0,2]},{"code":401,"indent":0,"parameters":["Je heu... "]},{"code":101,"indent":0,"parameters":["People1",7,0,2]},{"code":401,"indent":0,"parameters":["Rhhhoooo la jeunesse je vous jure !"]},{"code":401,"indent":0,"parameters":["C'est de pire en pire, d'abord ils écoutent "]},{"code":401,"indent":0,"parameters":["du rock'n roll et maintenant ça !"]},{"code":101,"indent":0,"parameters":["JeanneFace",0,0,2]},{"code":401,"indent":0,"parameters":["Heu d'accord.... "]},{"code":101,"indent":0,"parameters":["JeanneFace",2,0,2]},{"code":401,"indent":0,"parameters":["(Et dire que j'ai plus de 600 ans.)"]},{"code":123,"indent":0,"parameters":["B",0]},{"code":0,"indent":0,"parameters":[]}],"moveFrequency":3,"moveRoute":{"list":[{"code":0,"parameters":[]}],"repeat":true,"skippable":false,"wait":false},"moveSpeed":3,"moveType":1,"priorityType":1,"stepAnime":false,"through":false,"trigger":0,"walkAnime":true},{"conditions":{"actorId":1,"actorValid":false,"itemId":1,"itemValid":false,"selfSwitchCh":"B","selfSwitchValid":true,"switch1Id":1,"switch1Valid":false,"switch2Id":1,"switch2Valid":false,"variableId":1,"variableValid":false,"variableValue":0},"directionFix":false,"image":{"tileId":0,"characterName":"People1","direction":8,"pattern":0,"characterIndex":7},"list":[{"code":101,"indent":0,"parameters":["People1",7,0,2]},{"code":401,"indent":0,"parameters":["Rhhhoooo la jeunesse je vous jure ! "]},{"code":0,"indent":0,"parameters":[]}],"moveFrequency":3,"moveRoute":{"list":[{"code":0,"parameters":[]}],"repeat":true,"skippable":false,"wait":false},"moveSpeed":3,"moveType":1,"priorityType":1,"stepAnime":false,"through":false,"trigger":0,"walkAnime":true}],"x":10,"y":13},
{"id":4,"name":"EV004","note":"","pages":[{"conditions":{"actorId":1,"actorValid":false,"itemId":1,"itemValid":false,"selfSwitchCh":"A","selfSwitchValid":false,"switch1Id":1,"switch1Valid":false,"switch2Id":1,"switch2Valid":false,"variableId":1,"variableValid":false,"variableValue":0},"directionFix":false,"image":{"characterIndex":0,"characterName":"","direction":2,"pattern":0,"tileId":0},"list":[{"code":101,"indent":0,"parameters":["SoneaFace",3,0,2]},{"code":401,"indent":0,"parameters":["Oh un distributeur ! "]},{"code":101,"indent":0,"parameters":["JeanneFace",1,0,2]},{"code":401,"indent":0,"parameters":["On n'achètera rien."]},{"code":101,"indent":0,"parameters":["SoneaFace",2,0,2]},{"code":401,"indent":0,"parameters":["Oooh... dommafe... "]},{"code":0,"indent":0,"parameters":[]}],"moveFrequency":3,"moveRoute":{"list":[{"code":0,"parameters":[]}],"repeat":true,"skippable":false,"wait":false},"moveSpeed":3,"moveType":0,"priorityType":0,"stepAnime":false,"through":false,"trigger":0,"walkAnime":true}],"x":4,"y":18},
{"id":5,"name":"enfant1","note":"enfant1","pages":[{"conditions":{"actorId":1,"actorValid":false,"itemId":1,"itemValid":false,"selfSwitchCh":"A","selfSwitchValid":false,"switch1Id":1,"switch1Valid":false,"switch2Id":1,"switch2Valid":false,"variableId":7,"variableValid":true,"variableValue":0},"directionFix":true,"image":{"tileId":0,"characterName":"People1","direction":2,"pattern":0,"characterIndex":0},"list":[{"code":122,"indent":0,"parameters":[7,7,0,0,0]},{"code":101,"indent":0,"parameters":["People1",0,0,2]},{"code":401,"indent":0,"parameters":["Héééééééééééé ! "]},{"code":101,"indent":0,"parameters":["SoneaFace",1,0,2]},{"code":401,"indent":0,"parameters":["Qu'es tu veux le mioche ? "]},{"code":101,"indent":0,"parameters":["JeanneFace",2,0,2]},{"code":401,"indent":0,"parameters":["(il a 7 ans...)"]},{"code":101,"indent":0,"parameters":["People1",0,0,2]},{"code":401,"indent":0,"parameters":["Bah Bah d'abord bah vous ne passerez pas ! "]},{"code":101,"indent":0,"parameters":["JeanneFace",2,0,2]},{"code":401,"indent":0,"parameters":["Et pourquoi ? "]},{"code":101,"indent":0,"parameters":["People1",0,0,2]},{"code":401,"indent":0,"parameters":["Bah bah moi, je vous laisse passer que si "]},{"code":401,"indent":0,"parameters":["vous disez a ma soeur que c'est à mon tour "]},{"code":401,"indent":0,"parameters":["de faire de la balançoire d'abbord ! "]},{"code":101,"indent":0,"parameters":["JeanneFace",2,0,2]},{"code":401,"indent":0,"parameters":["Erffff sérieux ? "]},{"code":101,"indent":0,"parameters":["People1",0,0,2]},{"code":401,"indent":0,"parameters":["Nah !"]},{"code":122,"indent":0,"parameters":[7,7,1,0,1]},{"code":0,"indent":0,"parameters":[]}],"moveFrequency":3,"moveRoute":{"list":[{"code":0,"parameters":[]}],"repeat":true,"skippable":false,"wait":false},"moveSpeed":3,"moveType":0,"priorityType":1,"stepAnime":true,"through":false,"trigger":0,"walkAnime":true},{"conditions":{"actorId":1,"actorValid":false,"itemId":1,"itemValid":false,"selfSwitchCh":"A","selfSwitchValid":false,"switch1Id":1,"switch1Valid":false,"switch2Id":1,"switch2Valid":false,"variableId":7,"variableValid":true,"variableValue":1},"directionFix":true,"image":{"tileId":0,"characterName":"People1","direction":2,"pattern":0,"characterIndex":0},"list":[{"code":101,"indent":0,"parameters":["People1",0,0,2]},{"code":401,"indent":0,"parameters":["Bah bah moi, je vous laisse passer que si "]},{"code":401,"indent":0,"parameters":["vous disez a ma soeur que c'est à mon tour "]},{"code":401,"indent":0,"parameters":["de faire de la balançoire d'abbord ! "]},{"code":101,"indent":0,"parameters":["SoneaFace",0,0,2]},{"code":401,"indent":0,"parameters":["(Et après Jeanne ose dire que je suis "]},{"code":401,"indent":0,"parameters":["chiante....)"]},{"code":0,"indent":0,"parameters":[]}],"moveFrequency":3,"moveRoute":{"list":[{"code":0,"parameters":[]}],"repeat":true,"skippable":false,"wait":false},"moveSpeed":3,"moveType":0,"priorityType":1,"stepAnime":true,"through":false,"trigger":0,"walkAnime":true},{"conditions":{"actorId":1,"actorValid":false,"itemId":1,"itemValid":false,"selfSwitchCh":"A","selfSwitchValid":false,"switch1Id":1,"switch1Valid":false,"switch2Id":1,"switch2Valid":false,"variableId":7,"variableValid":true,"variableValue":2},"directionFix":true,"image":{"tileId":0,"characterName":"People1","direction":2,"pattern":0,"characterIndex":0},"list":[{"code":101,"indent":0,"parameters":["People1",0,0,2]},{"code":401,"indent":0,"parameters":["Bah bah alors ? "]},{"code":401,"indent":0,"parameters":["Je p-p-p peut faire de la balançoire ? "]},{"code":101,"indent":0,"parameters":["JeanneFace",2,0,2]},{"code":401,"indent":0,"parameters":["Si tu rends la Nidento Switch de ta soeur "]},{"code":401,"indent":0,"parameters":["je n'ai aucune idée de ce que c'est... "]},{"code":101,"indent":0,"parameters":["People1",0,0,2]},{"code":401,"indent":0,"parameters":["Bon bah d'accord c'est nul elle n'a qu'un "]},{"code":401,"indent":0,"parameters":["jeu tout pourris \"animal Cro....\" "]},{"code":213,"indent":0,"parameters":[-1,1,false]},{"code":101,"indent":0,"parameters":["SoneaFace",1,0,2]},{"code":401,"indent":0,"parameters":["MAIS LA FERME ! "]},{"code":101,"indent":0,"parameters":["People1",0,0,2]},{"code":401,"indent":0,"parameters":["OK OK ! "]},{"code":101,"indent":0,"parameters":["People1",0,0,2]},{"code":401,"indent":0,"parameters":["A une condition... "]},{"code":101,"indent":0,"parameters":["JeanneFace",2,0,2]},{"code":401,"indent":0,"parameters":["Le buché c'était pas si mal... "]},{"code":101,"indent":0,"parameters":["People1",0,0,2]},{"code":401,"indent":0,"parameters":["Hien ? T'as dis quoi madame ? "]},{"code":101,"indent":0,"parameters":["JeanneFace",0,0,2]},{"code":401,"indent":0,"parameters":["Rien, je t'écoute... "]},{"code":101,"indent":0,"parameters":["People1",0,0,2]},{"code":401,"indent":0,"parameters":["Disez à ma soeur de dire à maman que c'est "]},{"code":401,"indent":0,"parameters":["elle qui a cassé la télé avec un ballon de "]},{"code":401,"indent":0,"parameters":["foot"]},{"code":122,"indent":0,"parameters":[7,7,1,0,1]},{"code":0,"indent":0,"parameters":[]}],"moveFrequency":3,"moveRoute":{"list":[{"code":0,"parameters":[]}],"repeat":true,"skippable":false,"wait":false},"moveSpeed":3,"moveType":0,"priorityType":1,"stepAnime":true,"through":false,"trigger":0,"walkAnime":true},{"conditions":{"actorId":1,"actorValid":false,"itemId":1,"itemValid":false,"selfSwitchCh":"A","selfSwitchValid":false,"switch1Id":1,"switch1Valid":false,"switch2Id":1,"switch2Valid":false,"variableId":7,"variableValid":true,"variableValue":3},"directionFix":true,"image":{"tileId":0,"characterName":"People1","direction":2,"pattern":0,"characterIndex":0},"list":[{"code":101,"indent":0,"parameters":["People1",0,0,2]},{"code":401,"indent":0,"parameters":["Disez à ma soeur de dire à maman que c'est "]},{"code":401,"indent":0,"parameters":["elle qui a cassé la télé avec un ballon de "]},{"code":401,"indent":0,"parameters":["foot"]},{"code":0,"indent":0,"parameters":[]}],"moveFrequency":3,"moveRoute":{"list":[{"code":0,"parameters":[]}],"repeat":true,"skippable":false,"wait":false},"moveSpeed":3,"moveType":0,"priorityType":1,"stepAnime":true,"through":false,"trigger":0,"walkAnime":true}],"x":12,"y":12},
{"id":6,"name":"enfant2","note":"enfant1","pages":[{"conditions":{"actorId":1,"actorValid":false,"itemId":1,"itemValid":false,"selfSwitchCh":"A","selfSwitchValid":false,"switch1Id":1,"switch1Valid":false,"switch2Id":1,"switch2Valid":false,"variableId":7,"variableValid":true,"variableValue":0},"directionFix":false,"image":{"tileId":0,"characterName":"People4","direction":4,"pattern":2,"characterIndex":1},"list":[{"code":111,"indent":0,"parameters":[1,7,0,0,0]},{"code":101,"indent":1,"parameters":["People4",1,0,2]},{"code":401,"indent":1,"parameters":["Kwa ? Tu veux ma photo ? Je veux pas joué "]},{"code":401,"indent":1,"parameters":["avec toi moi ! "]},{"code":101,"indent":1,"parameters":["SoneaFace",1,0,2]},{"code":401,"indent":1,"parameters":["MAIS FOIS NON PLUS ! "]},{"code":101,"indent":1,"parameters":["JeanneFace",0,0,2]},{"code":401,"indent":1,"parameters":["Tu peux nous laisser passer petite ? "]},{"code":101,"indent":1,"parameters":["People4",1,0,2]},{"code":401,"indent":1,"parameters":["Ok ! "]},{"code":101,"indent":1,"parameters":["JeanneFace",0,0,2]},{"code":401,"indent":1,"parameters":["... "]},{"code":101,"indent":1,"parameters":["SoneaFace",0,0,2]},{"code":401,"indent":1,"parameters":["... "]},{"code":101,"indent":1,"parameters":["JeanneFace",3,0,2]},{"code":401,"indent":1,"parameters":["Je... "]},{"code":101,"indent":1,"parameters":["People4",1,0,2]},{"code":401,"indent":1,"parameters":["En échange de 1000 euros !"]},{"code":102,"indent":1,"parameters":[["D'accord voila ! [1000 euro]","Heu je suis pas Caesar..."],1,0,2,0]},{"code":402,"indent":1,"parameters":[0,"D'accord voila ! [1000 euro]"]},{"code":111,"indent":2,"parameters":[7,1000,0]},{"code":101,"indent":3,"parameters":["JeanneFace",2,0,2]},{"code":401,"indent":3,"parameters":["Grrrr tiens voila.... "]},{"code":101,"indent":3,"parameters":["People4",1,0,2]},{"code":401,"indent":3,"parameters":["Whaaaaaaaa Merci madame ! "]},{"code":205,"indent":3,"parameters":[-1,{"list":[{"code":1,"indent":null},{"code":0}],"repeat":false,"skippable":false,"wait":true}]},{"code":505,"indent":3,"parameters":[{"code":1,"indent":null}]},{"code":122,"indent":3,"parameters":[7,7,0,0,6]},{"code":0,"indent":3,"parameters":[]},{"code":411,"indent":2,"parameters":[]},{"code":101,"indent":3,"parameters":["JeanneFace",2,0,2]},{"code":401,"indent":3,"parameters":["Tiens voila.... "]},{"code":101,"indent":3,"parameters":["People4",1,0,2]},{"code":401,"indent":3,"parameters":["heu je suis une enfant pas une idiote"]},{"code":401,"indent":3,"parameters":["y'a pas 1000 euro là ! "]},{"code":0,"indent":3,"parameters":[]},{"code":412,"indent":2,"parameters":[]},{"code":0,"indent":2,"parameters":[]},{"code":402,"indent":1,"parameters":[1,"Heu je suis pas Caesar..."]},{"code":101,"indent":2,"parameters":["People4",1,0,2]},{"code":401,"indent":2,"parameters":["D'accord, bah laisser moi et allez voir mon "]},{"code":401,"indent":2,"parameters":["nulos de frère !"]},{"code":0,"indent":2,"parameters":[]},{"code":404,"indent":1,"parameters":[]},{"code":0,"indent":1,"parameters":[]},{"code":411,"indent":0,"parameters":[]},{"code":111,"indent":1,"parameters":[1,7,0,1,0]},{"code":101,"indent":2,"parameters":["JeanneFace",2,0,2]},{"code":401,"indent":2,"parameters":["Ton frère nous a demandé de te dire que "]},{"code":401,"indent":2,"parameters":["c'est à lui de faire de la balançoire "]},{"code":101,"indent":2,"parameters":["People4",1,0,2]},{"code":401,"indent":2,"parameters":["Bah non ! "]},{"code":101,"indent":2,"parameters":["JeanneFace",1,0,2]},{"code":401,"indent":2,"parameters":["MAIS.... "]},{"code":101,"indent":2,"parameters":["SoneaFace",1,0,2]},{"code":401,"indent":2,"parameters":["faisse le faire de la falançoire on a dis !"]},{"code":101,"indent":2,"parameters":["People4",1,0,2]},{"code":401,"indent":2,"parameters":["Mhhh d'accord ! "]},{"code":101,"indent":2,"parameters":["JeanneFace",0,0,2]},{"code":401,"indent":2,"parameters":["... "]},{"code":101,"indent":2,"parameters":["SoneaFace",0,0,2]},{"code":401,"indent":2,"parameters":["... "]},{"code":101,"indent":2,"parameters":["SoneaFace",3,0,2]},{"code":401,"indent":2,"parameters":["Et... "]},{"code":101,"indent":2,"parameters":["People4",1,0,2]},{"code":401,"indent":2,"parameters":["Mais dites lui de me rendre ma Nidento"]},{"code":401,"indent":2,"parameters":["switch ! "]},{"code":101,"indent":2,"parameters":["JeanneFace",2,0,2]},{"code":401,"indent":2,"parameters":["Erfffffff d'accord. "]},{"code":401,"indent":2,"parameters":["(C'est quoi une Nidento switch ? de mon "]},{"code":401,"indent":2,"parameters":["temps les enfant jouait av... Nan Jeanne "]},{"code":401,"indent":2,"parameters":["arrete vite cette phrase.)"]},{"code":101,"indent":2,"parameters":["SoneaFace",2,0,2]},{"code":401,"indent":2,"parameters":["Rolalala il font chiant c'est enfants ! "]},{"code":122,"indent":2,"parameters":[7,7,1,0,1]},{"code":0,"indent":2,"parameters":[]},{"code":411,"indent":1,"parameters":[]},{"code":0,"indent":2,"parameters":[]},{"code":412,"indent":1,"parameters":[]},{"code":0,"indent":1,"parameters":[]},{"code":412,"indent":0,"parameters":[]},{"code":0,"indent":0,"parameters":[]}],"moveFrequency":3,"moveRoute":{"list":[{"code":0,"parameters":[]}],"repeat":true,"skippable":false,"wait":false},"moveSpeed":3,"moveType":0,"priorityType":1,"stepAnime":false,"through":false,"trigger":0,"walkAnime":true},{"conditions":{"actorId":1,"actorValid":false,"itemId":1,"itemValid":false,"selfSwitchCh":"A","selfSwitchValid":false,"switch1Id":1,"switch1Valid":false,"switch2Id":1,"switch2Valid":false,"variableId":7,"variableValid":true,"variableValue":1},"directionFix":false,"image":{"tileId":0,"characterName":"People4","direction":4,"pattern":2,"characterIndex":1},"list":[{"code":101,"indent":0,"parameters":["JeanneFace",2,0,2]},{"code":401,"indent":0,"parameters":["Ton frère nous a demandé de te dire que "]},{"code":401,"indent":0,"parameters":["c'est à lui de faire de la balançoire "]},{"code":101,"indent":0,"parameters":["People4",1,0,2]},{"code":401,"indent":0,"parameters":["Bah non ! "]},{"code":101,"indent":0,"parameters":["JeanneFace",1,0,2]},{"code":401,"indent":0,"parameters":["MAIS.... "]},{"code":101,"indent":0,"parameters":["SoneaFace",1,0,2]},{"code":401,"indent":0,"parameters":["faisse le faire de la falançoire on a dis !"]},{"code":101,"indent":0,"parameters":["People4",1,0,2]},{"code":401,"indent":0,"parameters":["Mhhh d'accord ! "]},{"code":101,"indent":0,"parameters":["JeanneFace",0,0,2]},{"code":401,"indent":0,"parameters":["... "]},{"code":101,"indent":0,"parameters":["SoneaFace",0,0,2]},{"code":401,"indent":0,"parameters":["... "]},{"code":101,"indent":0,"parameters":["SoneaFace",3,0,2]},{"code":401,"indent":0,"parameters":["Et... "]},{"code":101,"indent":0,"parameters":["People4",1,0,2]},{"code":401,"indent":0,"parameters":["Mais dites lui de me rendre ma Nidento"]},{"code":401,"indent":0,"parameters":["switch ! "]},{"code":101,"indent":0,"parameters":["JeanneFace",2,0,2]},{"code":401,"indent":0,"parameters":["Erfffffff d'accord. "]},{"code":401,"indent":0,"parameters":["(C'est quoi une Nidento switch ? de mon "]},{"code":401,"indent":0,"parameters":["temps les enfant jouait av... Nan Jeanne "]},{"code":401,"indent":0,"parameters":["arrete vite cette phrase.)"]},{"code":101,"indent":0,"parameters":["SoneaFace",2,0,2]},{"code":401,"indent":0,"parameters":["Rolalala il font chiant c'est enfants ! "]},{"code":122,"indent":0,"parameters":[7,7,1,0,1]},{"code":0,"indent":0,"parameters":[]}],"moveFrequency":3,"moveRoute":{"list":[{"code":0,"parameters":[]}],"repeat":true,"skippable":false,"wait":false},"moveSpeed":3,"moveType":0,"priorityType":1,"stepAnime":false,"through":false,"trigger":0,"walkAnime":true},{"conditions":{"actorId":1,"actorValid":false,"itemId":1,"itemValid":false,"selfSwitchCh":"A","selfSwitchValid":false,"switch1Id":1,"switch1Valid":false,"switch2Id":1,"switch2Valid":false,"variableId":7,"variableValid":true,"variableValue":2},"directionFix":false,"image":{"tileId":0,"characterName":"People4","direction":4,"pattern":2,"characterIndex":1},"list":[{"code":101,"indent":0,"parameters":["People4",1,0,2]},{"code":401,"indent":0,"parameters":["Quoi les nullos ? Encore vous ? "]},{"code":101,"indent":0,"parameters":["JeanneFace",2,0,2]},{"code":401,"indent":0,"parameters":["Ton frère nous envois te demandé de "]},{"code":401,"indent":0,"parameters":["dire que c'est toi qui as cassé la télé en "]},{"code":401,"indent":0,"parameters":["échange de ton jeu "]},{"code":101,"indent":0,"parameters":["People4",1,0,2]},{"code":401,"indent":0,"parameters":["Mhhh d'accord ! "]},{"code":101,"indent":0,"parameters":["JeanneFace",0,0,2]},{"code":401,"indent":0,"parameters":["... "]},{"code":101,"indent":0,"parameters":["SoneaFace",0,0,2]},{"code":401,"indent":0,"parameters":["... "]},{"code":101,"indent":0,"parameters":["SoneaFace",1,0,2]},{"code":401,"indent":0,"parameters":["En échange de quoi ? "]},{"code":101,"indent":0,"parameters":["People4",1,0,2]},{"code":401,"indent":0,"parameters":["Oh bah rien, je suis pas comme ca !"]},{"code":213,"indent":0,"parameters":[0,4,false]},{"code":101,"indent":0,"parameters":["JeanneFace",2,0,2]},{"code":401,"indent":0,"parameters":["Je vais devenir folle.... "]},{"code":101,"indent":0,"parameters":["People4",1,0,2]},{"code":401,"indent":0,"parameters":["Dites lui que c'est ok ! "]},{"code":122,"indent":0,"parameters":[7,7,1,0,1]},{"code":0,"indent":0,"parameters":[]}],"moveFrequency":3,"moveRoute":{"list":[{"code":0,"parameters":[]}],"repeat":true,"skippable":false,"wait":false},"moveSpeed":3,"moveType":0,"priorityType":1,"stepAnime":false,"through":false,"trigger":0,"walkAnime":true},{"conditions":{"actorId":1,"actorValid":false,"itemId":1,"itemValid":false,"selfSwitchCh":"A","selfSwitchValid":false,"switch1Id":1,"switch1Valid":false,"switch2Id":1,"switch2Valid":false,"variableId":7,"variableValid":true,"variableValue":3},"directionFix":false,"image":{"tileId":0,"characterName":"People4","direction":4,"pattern":2,"characterIndex":1},"list":[{"code":101,"indent":0,"parameters":["People4",1,0,2]},{"code":401,"indent":0,"parameters":["Quoi les nullos ? Encore vous ? "]},{"code":101,"indent":0,"parameters":["JeanneFace",2,0,2]},{"code":401,"indent":0,"parameters":["Ton frère nous envois te demandé de "]},{"code":401,"indent":0,"parameters":["dire que c'est toi qui as cassé la télé en "]},{"code":401,"indent":0,"parameters":["échange de ton jeu "]},{"code":101,"indent":0,"parameters":["People4",1,0,2]},{"code":401,"indent":0,"parameters":["Mhhh d'accord ! "]},{"code":101,"indent":0,"parameters":["JeanneFace",0,0,2]},{"code":401,"indent":0,"parameters":["... "]},{"code":101,"indent":0,"parameters":["SoneaFace",0,0,2]},{"code":401,"indent":0,"parameters":["... "]},{"code":101,"indent":0,"parameters":["SoneaFace",1,0,2]},{"code":401,"indent":0,"parameters":["En échange de quoi ? "]},{"code":101,"indent":0,"parameters":["People4",1,0,2]},{"code":401,"indent":0,"parameters":["Oh bah rien, je suis pas comme ca !"]},{"code":213,"indent":0,"parameters":[0,4,false]},{"code":101,"indent":0,"parameters":["JeanneFace",2,0,2]},{"code":401,"indent":0,"parameters":["Je vais devenir folle.... "]},{"code":101,"indent":0,"parameters":["People4",1,0,2]},{"code":401,"indent":0,"parameters":["Dites lui que c'est ok ! "]},{"code":122,"indent":0,"parameters":[7,7,1,0,1]},{"code":0,"indent":0,"parameters":[]}],"moveFrequency":3,"moveRoute":{"list":[{"code":0,"parameters":[]}],"repeat":true,"skippable":false,"wait":false},"moveSpeed":3,"moveType":0,"priorityType":1,"stepAnime":false,"through":false,"trigger":0,"walkAnime":true},{"conditions":{"actorId":1,"actorValid":false,"itemId":1,"itemValid":false,"selfSwitchCh":"A","selfSwitchValid":false,"switch1Id":1,"switch1Valid":false,"switch2Id":1,"switch2Valid":false,"variableId":7,"variableValid":true,"variableValue":4},"directionFix":false,"image":{"tileId":0,"characterName":"People4","direction":4,"pattern":2,"characterIndex":1},"list":[{"code":101,"indent":0,"parameters":["People4",1,0,2]},{"code":401,"indent":0,"parameters":["Dites lui que c'est ok ! "]},{"code":0,"indent":0,"parameters":[]}],"moveFrequency":3,"moveRoute":{"list":[{"code":0,"parameters":[]}],"repeat":true,"skippable":false,"wait":false},"moveSpeed":3,"moveType":0,"priorityType":1,"stepAnime":false,"through":false,"trigger":0,"walkAnime":true}],"x":15,"y":14},
{"id":7,"name":"EV007","note":"","pages":[{"conditions":{"actorId":1,"actorValid":false,"itemId":1,"itemValid":false,"selfSwitchCh":"A","selfSwitchValid":false,"switch1Id":1,"switch1Valid":false,"switch2Id":1,"switch2Valid":false,"variableId":1,"variableValid":false,"variableValue":0},"directionFix":true,"image":{"tileId":0,"characterName":"!Chest","direction":2,"pattern":1,"characterIndex":7},"list":[{"code":250,"indent":0,"parameters":[{"name":"Chest1","pan":0,"pitch":100,"volume":90}]},{"code":205,"indent":0,"parameters":[0,{"list":[{"code":36},{"code":17},{"code":15,"parameters":[3]},{"code":18},{"code":15,"parameters":[3]},{"code":0}],"repeat":false,"skippable":false,"wait":true}]},{"code":505,"indent":0,"parameters":[{"code":36}]},{"code":505,"indent":0,"parameters":[{"code":17}]},{"code":505,"indent":0,"parameters":[{"code":15,"parameters":[3]}]},{"code":505,"indent":0,"parameters":[{"code":18}]},{"code":505,"indent":0,"parameters":[{"code":15,"parameters":[3]}]},{"code":123,"indent":0,"parameters":["A",0]},{"code":125,"indent":0,"parameters":[0,0,50]},{"code":101,"indent":0,"parameters":["",0,0,2]},{"code":401,"indent":0,"parameters":["50\\G were found!"]},{"code":0,"indent":0,"parameters":[]}],"moveFrequency":3,"moveRoute":{"list":[{"code":0,"parameters":[]}],"repeat":true,"skippable":false,"wait":false},"moveSpeed":3,"moveType":0,"priorityType":1,"stepAnime":false,"through":false,"trigger":0,"walkAnime":false},{"conditions":{"actorId":1,"actorValid":false,"itemId":1,"itemValid":false,"selfSwitchCh":"A","selfSwitchValid":true,"switch1Id":1,"switch1Valid":false,"switch2Id":1,"switch2Valid":false,"variableId":1,"variableValid":false,"variableValue":0},"directionFix":true,"image":{"characterIndex":0,"characterName":"!Chest","direction":8,"pattern":1,"tileId":0},"list":[{"code":0,"indent":0,"parameters":[]}],"moveFrequency":3,"moveRoute":{"list":[{"code":0,"parameters":[]}],"repeat":true,"skippable":false,"wait":false},"moveSpeed":3,"moveType":0,"priorityType":1,"stepAnime":false,"through":false,"trigger":0,"walkAnime":false}],"x":15,"y":11},
{"id":8,"name":"EV005","note":"\\EXCLASUR","pages":[{"conditions":{"actorId":1,"actorValid":false,"itemId":1,"itemValid":false,"selfSwitchCh":"A","selfSwitchValid":false,"switch1Id":1,"switch1Valid":false,"switch2Id":1,"switch2Valid":false,"variableId":5,"variableValid":true,"variableValue":1},"directionFix":false,"image":{"characterIndex":0,"characterName":"","direction":2,"pattern":0,"tileId":0},"list":[{"code":101,"indent":0,"parameters":["",0,0,2]},{"code":401,"indent":0,"parameters":["Sauter ?"]},{"code":102,"indent":0,"parameters":[["Oui","Non"],1,0,2,0]},{"code":402,"indent":0,"parameters":[0,"Oui"]},{"code":205,"indent":1,"parameters":[-1,{"list":[{"code":14,"parameters":[-2,0],"indent":null},{"code":0}],"repeat":false,"skippable":false,"wait":true}]},{"code":505,"indent":1,"parameters":[{"code":14,"parameters":[-2,0],"indent":null}]},{"code":0,"indent":1,"parameters":[]},{"code":402,"indent":0,"parameters":[1,"Non"]},{"code":0,"indent":1,"parameters":[]},{"code":404,"indent":0,"parameters":[]},{"code":0,"indent":0,"parameters":[]}],"moveFrequency":3,"moveRoute":{"list":[{"code":0,"parameters":[]}],"repeat":true,"skippable":false,"wait":false},"moveSpeed":3,"moveType":0,"priorityType":0,"stepAnime":false,"through":false,"trigger":0,"walkAnime":true},{"conditions":{"actorId":1,"actorValid":false,"itemId":1,"itemValid":false,"selfSwitchCh":"A","selfSwitchValid":false,"switch1Id":1,"switch1Valid":false,"switch2Id":1,"switch2Valid":false,"variableId":5,"variableValid":true,"variableValue":2},"directionFix":false,"image":{"characterIndex":0,"characterName":"","direction":2,"pattern":0,"tileId":0},"list":[{"code":0,"indent":0,"parameters":[]}],"moveFrequency":3,"moveRoute":{"list":[{"code":0,"parameters":[]}],"repeat":true,"skippable":false,"wait":false},"moveSpeed":3,"moveType":0,"priorityType":0,"stepAnime":false,"through":false,"trigger":0,"walkAnime":true}],"x":2,"y":12},
{"id":9,"name":"EV006","note":"\\EXCLASUR","pages":[{"conditions":{"actorId":1,"actorValid":false,"itemId":1,"itemValid":false,"selfSwitchCh":"A","selfSwitchValid":false,"switch1Id":1,"switch1Valid":false,"switch2Id":1,"switch2Valid":false,"variableId":5,"variableValid":true,"variableValue":1},"directionFix":false,"image":{"characterIndex":0,"characterName":"","direction":2,"pattern":0,"tileId":0},"list":[{"code":101,"indent":0,"parameters":["JeanneFace",2,0,2]},{"code":401,"indent":0,"parameters":["Bon, ça m'a l'air d'être là... "]},{"code":101,"indent":0,"parameters":["SoneaFace",1,0,2]},{"code":401,"indent":0,"parameters":["Comment on fait ? "]},{"code":101,"indent":0,"parameters":["JeanneFace",2,0,2]},{"code":401,"indent":0,"parameters":["Je vais sauter par-dessus. "]},{"code":101,"indent":0,"parameters":["SoneaFace",1,0,2]},{"code":401,"indent":0,"parameters":["Je te suis ! "]},{"code":101,"indent":0,"parameters":["",0,0,2]},{"code":401,"indent":0,"parameters":["Sauter ?"]},{"code":102,"indent":0,"parameters":[["Oui","Non"],1,0,2,0]},{"code":402,"indent":0,"parameters":[0,"Oui"]},{"code":205,"indent":1,"parameters":[-1,{"list":[{"code":14,"parameters":[0,-3],"indent":null},{"code":0}],"repeat":false,"skippable":false,"wait":true}]},{"code":505,"indent":1,"parameters":[{"code":14,"parameters":[0,-3],"indent":null}]},{"code":0,"indent":1,"parameters":[]},{"code":402,"indent":0,"parameters":[1,"Non"]},{"code":0,"indent":1,"parameters":[]},{"code":404,"indent":0,"parameters":[]},{"code":0,"indent":0,"parameters":[]}],"moveFrequency":3,"moveRoute":{"list":[{"code":0,"parameters":[]}],"repeat":true,"skippable":false,"wait":false},"moveSpeed":3,"moveType":0,"priorityType":0,"stepAnime":false,"through":false,"trigger":0,"walkAnime":true},{"conditions":{"actorId":1,"actorValid":false,"itemId":1,"itemValid":false,"selfSwitchCh":"A","selfSwitchValid":false,"switch1Id":1,"switch1Valid":false,"switch2Id":1,"switch2Valid":false,"variableId":5,"variableValid":true,"variableValue":2},"directionFix":false,"image":{"characterIndex":0,"characterName":"","direction":2,"pattern":0,"tileId":0},"list":[{"code":0,"indent":0,"parameters":[]}],"moveFrequency":3,"moveRoute":{"list":[{"code":0,"parameters":[]}],"repeat":true,"skippable":false,"wait":false},"moveSpeed":3,"moveType":0,"priorityType":0,"stepAnime":false,"through":false,"trigger":0,"walkAnime":true}],"x":1,"y":17},
{"id":10,"name":"EV007","note":"\\EXCLASUR","pages":[{"conditions":{"actorId":1,"actorValid":false,"itemId":1,"itemValid":false,"selfSwitchCh":"A","selfSwitchValid":false,"switch1Id":1,"switch1Valid":false,"switch2Id":1,"switch2Valid":false,"variableId":5,"variableValid":true,"variableValue":1},"directionFix":false,"image":{"characterIndex":0,"characterName":"","direction":2,"pattern":0,"tileId":0},"list":[{"code":101,"indent":0,"parameters":["",0,0,2]},{"code":401,"indent":0,"parameters":["Sauter ?"]},{"code":102,"indent":0,"parameters":[["Oui","Non"],1,0,2,0]},{"code":402,"indent":0,"parameters":[0,"Oui"]},{"code":205,"indent":1,"parameters":[-1,{"list":[{"code":14,"parameters":[2,-1],"indent":null},{"code":0}],"repeat":false,"skippable":false,"wait":true}]},{"code":505,"indent":1,"parameters":[{"code":14,"parameters":[2,-1],"indent":null}]},{"code":0,"indent":1,"parameters":[]},{"code":402,"indent":0,"parameters":[1,"Non"]},{"code":0,"indent":1,"parameters":[]},{"code":404,"indent":0,"parameters":[]},{"code":0,"indent":0,"parameters":[]}],"moveFrequency":3,"moveRoute":{"list":[{"code":0,"parameters":[]}],"repeat":true,"skippable":false,"wait":false},"moveSpeed":3,"moveType":0,"priorityType":0,"stepAnime":false,"through":false,"trigger":0,"walkAnime":true},{"conditions":{"actorId":1,"actorValid":false,"itemId":1,"itemValid":false,"selfSwitchCh":"A","selfSwitchValid":false,"switch1Id":1,"switch1Valid":false,"switch2Id":1,"switch2Valid":false,"variableId":5,"variableValid":true,"variableValue":2},"directionFix":false,"image":{"characterIndex":0,"characterName":"","direction":2,"pattern":0,"tileId":0},"list":[{"code":0,"indent":0,"parameters":[]}],"moveFrequency":3,"moveRoute":{"list":[{"code":0,"parameters":[]}],"repeat":true,"skippable":false,"wait":false},"moveSpeed":3,"moveType":0,"priorityType":0,"stepAnime":false,"through":false,"trigger":0,"walkAnime":true}],"x":0,"y":11},
{"id":11,"name":"EV008","note":"","pages":[{"conditions":{"actorId":1,"actorValid":false,"itemId":1,"itemValid":false,"selfSwitchCh":"A","selfSwitchValid":false,"switch1Id":1,"switch1Valid":false,"switch2Id":1,"switch2Valid":false,"variableId":5,"variableValid":true,"variableValue":1},"directionFix":true,"image":{"tileId":165,"characterName":"","characterIndex":0,"direction":2,"pattern":0},"list":[{"code":0,"indent":0,"parameters":[]}],"moveFrequency":3,"moveRoute":{"list":[{"code":0,"parameters":[]}],"repeat":true,"skippable":false,"wait":false},"moveSpeed":3,"moveType":0,"priorityType":0,"stepAnime":false,"through":false,"trigger":0,"walkAnime":false}],"x":1,"y":6},
{"id":12,"name":"EV009","note":"\\EXCLASUR","pages":[{"conditions":{"actorId":1,"actorValid":false,"itemId":1,"itemValid":false,"selfSwitchCh":"A","selfSwitchValid":false,"switch1Id":1,"switch1Valid":false,"switch2Id":1,"switch2Valid":false,"variableId":5,"variableValid":true,"variableValue":2},"directionFix":false,"image":{"characterIndex":0,"characterName":"","direction":2,"pattern":0,"tileId":0},"list":[{"code":101,"indent":0,"parameters":["",0,0,2]},{"code":401,"indent":0,"parameters":["Sauter ?"]},{"code":102,"indent":0,"parameters":[["Oui","Non"],1,0,2,0]},{"code":402,"indent":0,"parameters":[0,"Oui"]},{"code":205,"indent":1,"parameters":[-1,{"list":[{"code":14,"parameters":[0,-2],"indent":null},{"code":0}],"repeat":false,"skippable":false,"wait":true}]},{"code":505,"indent":1,"parameters":[{"code":14,"parameters":[0,-2],"indent":null}]},{"code":0,"indent":1,"parameters":[]},{"code":402,"indent":0,"parameters":[1,"Non"]},{"code":0,"indent":1,"parameters":[]},{"code":404,"indent":0,"parameters":[]},{"code":0,"indent":0,"parameters":[]}],"moveFrequency":3,"moveRoute":{"list":[{"code":0,"parameters":[]}],"repeat":true,"skippable":false,"wait":false},"moveSpeed":3,"moveType":0,"priorityType":0,"stepAnime":false,"through":false,"trigger":0,"walkAnime":true},{"conditions":{"actorId":1,"actorValid":false,"itemId":1,"itemValid":false,"selfSwitchCh":"A","selfSwitchValid":false,"switch1Id":1,"switch1Valid":false,"switch2Id":1,"switch2Valid":false,"variableId":5,"variableValid":true,"variableValue":3},"directionFix":false,"image":{"characterIndex":0,"characterName":"","direction":2,"pattern":0,"tileId":0},"list":[{"code":0,"indent":0,"parameters":[]}],"moveFrequency":3,"moveRoute":{"list":[{"code":0,"parameters":[]}],"repeat":true,"skippable":false,"wait":false},"moveSpeed":3,"moveType":0,"priorityType":0,"stepAnime":false,"through":false,"trigger":0,"walkAnime":true}],"x":1,"y":7},
{"id":13,"name":"EV010","note":"\\EXCLASUR","pages":[{"conditions":{"actorId":1,"actorValid":false,"itemId":1,"itemValid":false,"selfSwitchCh":"A","selfSwitchValid":false,"switch1Id":1,"switch1Valid":false,"switch2Id":1,"switch2Valid":false,"variableId":5,"variableValid":true,"variableValue":2},"directionFix":false,"image":{"characterIndex":0,"characterName":"","direction":2,"pattern":0,"tileId":0},"list":[{"code":101,"indent":0,"parameters":["",0,0,2]},{"code":401,"indent":0,"parameters":["Sauter ?"]},{"code":102,"indent":0,"parameters":[["Oui","Non"],1,0,2,0]},{"code":402,"indent":0,"parameters":[0,"Oui"]},{"code":205,"indent":1,"parameters":[-1,{"list":[{"code":14,"parameters":[0,2],"indent":null},{"code":0}],"repeat":false,"skippable":false,"wait":true}]},{"code":505,"indent":1,"parameters":[{"code":14,"parameters":[0,2],"indent":null}]},{"code":0,"indent":1,"parameters":[]},{"code":402,"indent":0,"parameters":[1,"Non"]},{"code":0,"indent":1,"parameters":[]},{"code":404,"indent":0,"parameters":[]},{"code":0,"indent":0,"parameters":[]}],"moveFrequency":3,"moveRoute":{"list":[{"code":0,"parameters":[]}],"repeat":true,"skippable":false,"wait":false},"moveSpeed":3,"moveType":0,"priorityType":0,"stepAnime":false,"through":false,"trigger":0,"walkAnime":true},{"conditions":{"actorId":1,"actorValid":false,"itemId":1,"itemValid":false,"selfSwitchCh":"A","selfSwitchValid":false,"switch1Id":1,"switch1Valid":false,"switch2Id":1,"switch2Valid":false,"variableId":5,"variableValid":true,"variableValue":3},"directionFix":false,"image":{"characterIndex":0,"characterName":"","direction":2,"pattern":0,"tileId":0},"list":[{"code":0,"indent":0,"parameters":[]}],"moveFrequency":3,"moveRoute":{"list":[{"code":0,"parameters":[]}],"repeat":true,"skippable":false,"wait":false},"moveSpeed":3,"moveType":0,"priorityType":0,"stepAnime":false,"through":false,"trigger":0,"walkAnime":true}],"x":1,"y":5},
{"id":14,"name":"EV011","note":"","pages":[{"conditions":{"actorId":1,"actorValid":false,"itemId":1,"itemValid":false,"selfSwitchCh":"A","selfSwitchValid":false,"switch1Id":1,"switch1Valid":false,"switch2Id":1,"switch2Valid":false,"variableId":5,"variableValid":true,"variableValue":1},"directionFix":false,"image":{"tileId":0,"characterName":"!Flame","direction":8,"pattern":1,"characterIndex":6},"list":[{"code":101,"indent":0,"parameters":["SoneaFace",1,0,2]},{"code":401,"indent":0,"parameters":["Oh ! C'est une \\c[2]clé\\c[0] ? "]},{"code":101,"indent":0,"parameters":["JeanneFace",0,0,2]},{"code":401,"indent":0,"parameters":["On dirait bien !"]},{"code":101,"indent":0,"parameters":["JeanneFace",0,0,2]},{"code":401,"indent":0,"parameters":["Retournons voir la fillette. "]},{"code":101,"indent":0,"parameters":["",0,0,2]},{"code":401,"indent":0,"parameters":["Vous obtenez \\c[2]clé\\c[0]. "]},{"code":126,"indent":0,"parameters":[17,0,0,1]},{"code":122,"indent":0,"parameters":[5,5,0,0,2]},{"code":0,"indent":0,"parameters":[]}],"moveFrequency":3,"moveRoute":{"list":[{"code":0,"parameters":[]}],"repeat":true,"skippable":false,"wait":false},"moveSpeed":3,"moveType":0,"priorityType":2,"stepAnime":true,"through":true,"trigger":0,"walkAnime":false},{"conditions":{"actorId":1,"actorValid":false,"itemId":1,"itemValid":false,"selfSwitchCh":"A","selfSwitchValid":false,"switch1Id":1,"switch1Valid":false,"switch2Id":1,"switch2Valid":false,"variableId":5,"variableValid":true,"variableValue":2},"directionFix":false,"image":{"characterIndex":0,"characterName":"","direction":2,"pattern":0,"tileId":0},"list":[{"code":0,"indent":0,"parameters":[]}],"moveFrequency":3,"moveRoute":{"list":[{"code":0,"parameters":[]}],"repeat":true,"skippable":false,"wait":false},"moveSpeed":3,"moveType":0,"priorityType":0,"stepAnime":false,"through":false,"trigger":0,"walkAnime":false}],"x":2,"y":8},
{"id":15,"name":"EV015","note":"","pages":[{"conditions":{"actorId":1,"actorValid":false,"itemId":1,"itemValid":false,"selfSwitchCh":"A","selfSwitchValid":false,"switch1Id":1,"switch1Valid":false,"switch2Id":1,"switch2Valid":false,"variableId":1,"variableValid":false,"variableValue":0},"directionFix":false,"image":{"characterIndex":0,"characterName":"","direction":2,"pattern":0,"tileId":0},"list":[{"code":250,"indent":0,"parameters":[{"name":"Move1","pan":0,"pitch":100,"volume":90}]},{"code":201,"indent":0,"parameters":[0,4,0,4,0,0]},{"code":0,"indent":0,"parameters":[]}],"moveFrequency":3,"moveRoute":{"list":[{"code":0,"parameters":[]}],"repeat":true,"skippable":false,"wait":false},"moveSpeed":3,"moveType":0,"priorityType":0,"stepAnime":false,"through":false,"trigger":1,"walkAnime":true}],"x":29,"y":21},
{"id":16,"name":"EV016","note":"","pages":[{"conditions":{"actorId":1,"actorValid":false,"itemId":1,"itemValid":false,"selfSwitchCh":"A","selfSwitchValid":false,"switch1Id":1,"switch1Valid":false,"switch2Id":1,"switch2Valid":false,"variableId":1,"variableValid":false,"variableValue":0},"directionFix":false,"image":{"tileId":0,"characterName":"WyrranWalk","direction":2,"pattern":1,"characterIndex":0},"list":[{"code":117,"indent":0,"parameters":[5]},{"code":123,"indent":0,"parameters":["A",0]},{"code":0,"indent":0,"parameters":[]}],"moveFrequency":3,"moveRoute":{"list":[{"code":0,"parameters":[]}],"repeat":true,"skippable":false,"wait":false},"moveSpeed":3,"moveType":0,"priorityType":1,"stepAnime":false,"through":false,"trigger":0,"walkAnime":true},{"conditions":{"actorId":1,"actorValid":false,"itemId":1,"itemValid":false,"selfSwitchCh":"A","selfSwitchValid":true,"switch1Id":1,"switch1Valid":false,"switch2Id":1,"switch2Valid":false,"variableId":9,"variableValid":true,"variableValue":1},"directionFix":false,"image":{"tileId":0,"characterName":"WyrranWalk","direction":2,"pattern":1,"characterIndex":0},"list":[{"code":101,"indent":0,"parameters":["JeanneFace",2,0,2]},{"code":401,"indent":0,"parameters":["Bon, et maintenant tu peux nous dire "]},{"code":401,"indent":0,"parameters":["si tu as vu notre ami, il est sorti de cet "]},{"code":401,"indent":0,"parameters":["immeuble-ci y'a pas longtemps. "]},{"code":101,"indent":0,"parameters":["SoneaFace",0,0,2]},{"code":401,"indent":0,"parameters":["Ouais ! Il est habillé afec une éfarpe "]},{"code":401,"indent":0,"parameters":["qui pue !"]},{"code":101,"indent":0,"parameters":["Wyrran",0,0,2]},{"code":401,"indent":0,"parameters":["Je l'ai vu en effet. "]},{"code":101,"indent":0,"parameters":["",0,0,2]},{"code":401,"indent":0,"parameters":["Je l'ai vu aller dans la rue adjacente. "]},{"code":401,"indent":0,"parameters":["Je l'ai même suivi un peu, je crois qu'il s'est "]},{"code":401,"indent":0,"parameters":["glissé dans les \\c[3]égoûts\\c[0]. "]},{"code":101,"indent":0,"parameters":["JeanneFace",1,0,2]},{"code":401,"indent":0,"parameters":["Mais qu'est-ce qu'il fout là bas lui ?!"]},{"code":101,"indent":0,"parameters":["",0,0,2]},{"code":401,"indent":0,"parameters":["Comment on va dans les \\c[2]égoûts\\c[0] ?? "]},{"code":101,"indent":0,"parameters":["Wyrran",0,0,2]},{"code":401,"indent":0,"parameters":["Ah ça... Je ne peux pas trop spoiler "]},{"code":401,"indent":0,"parameters":["non plus... "]},{"code":0,"indent":0,"parameters":[]}],"moveFrequency":3,"moveRoute":{"list":[{"code":0,"parameters":[]}],"repeat":true,"skippable":false,"wait":false},"moveSpeed":3,"moveType":0,"priorityType":1,"stepAnime":false,"through":false,"trigger":0,"walkAnime":true}],"x":19,"y":19},
{"id":17,"name":"EV017","note":"","pages":[{"conditions":{"actorId":1,"actorValid":false,"itemId":1,"itemValid":false,"selfSwitchCh":"A","selfSwitchValid":false,"switch1Id":1,"switch1Valid":false,"switch2Id":1,"switch2Valid":false,"variableId":1,"variableValid":false,"variableValue":0},"directionFix":false,"image":{"tileId":0,"characterName":"Voiture","direction":6,"pattern":1,"characterIndex":1},"list":[{"code":0,"indent":0,"parameters":[]}],"moveFrequency":3,"moveRoute":{"list":[{"code":0,"parameters":[]}],"repeat":true,"skippable":false,"wait":false},"moveSpeed":3,"moveType":0,"priorityType":1,"stepAnime":false,"through":false,"trigger":0,"walkAnime":true}],"x":6,"y":19},
{"id":18,"name":"EV018","note":"","pages":[{"conditions":{"actorId":1,"actorValid":false,"itemId":1,"itemValid":false,"selfSwitchCh":"A","selfSwitchValid":false,"switch1Id":1,"switch1Valid":false,"switch2Id":1,"switch2Valid":false,"variableId":1,"variableValid":false,"variableValue":0},"directionFix":false,"image":{"characterIndex":0,"characterName":"","direction":2,"pattern":0,"tileId":0},"list":[{"code":230,"indent":0,"parameters":[60]},{"code":205,"indent":0,"parameters":[-1,{"list":[{"code":18,"indent":null},{"code":15,"parameters":[80],"indent":null},{"code":17,"indent":null},{"code":15,"parameters":[60],"indent":null},{"code":16,"indent":null},{"code":0}],"repeat":false,"skippable":false,"wait":true}]},{"code":505,"indent":0,"parameters":[{"code":18,"indent":null}]},{"code":505,"indent":0,"parameters":[{"code":15,"parameters":[80],"indent":null}]},{"code":505,"indent":0,"parameters":[{"code":17,"indent":null}]},{"code":505,"indent":0,"parameters":[{"code":15,"parameters":[60],"indent":null}]},{"code":505,"indent":0,"parameters":[{"code":16,"indent":null}]},{"code":213,"indent":0,"parameters":[-1,2,true]},{"code":101,"indent":0,"parameters":["JeanneFace",1,0,2]},{"code":401,"indent":0,"parameters":["Mais où est bien passé Grontran ? "]},{"code":101,"indent":0,"parameters":["JeanneFace",1,0,2]},{"code":401,"indent":0,"parameters":["Il a dit qu'il faisait le guet en bas..."]},{"code":101,"indent":0,"parameters":["JeanneFace",2,0,2]},{"code":401,"indent":0,"parameters":["Je suppose qu'on a plus qu'à le trouver."]},{"code":101,"indent":0,"parameters":["JeanneFace",1,0,2]},{"code":401,"indent":0,"parameters":["( Fais chier ! )"]},{"code":101,"indent":0,"parameters":["SoneaFace",0,0,2]},{"code":401,"indent":0,"parameters":["Peut-être qu'il est allé boire un coup !"]},{"code":101,"indent":0,"parameters":["JeanneFace",2,0,2]},{"code":401,"indent":0,"parameters":["Boire quoi et où, hein..."]},{"code":123,"indent":0,"parameters":["A",0]},{"code":0,"indent":0,"parameters":[]}],"moveFrequency":3,"moveRoute":{"list":[{"code":0,"parameters":[]}],"repeat":true,"skippable":false,"wait":false},"moveSpeed":3,"moveType":0,"priorityType":0,"stepAnime":false,"through":false,"trigger":3,"walkAnime":true},{"conditions":{"actorId":1,"actorValid":false,"itemId":1,"itemValid":false,"selfSwitchCh":"A","selfSwitchValid":true,"switch1Id":1,"switch1Valid":false,"switch2Id":1,"switch2Valid":false,"variableId":1,"variableValid":false,"variableValue":0},"directionFix":false,"image":{"characterIndex":0,"characterName":"","direction":2,"pattern":0,"tileId":0},"list":[{"code":0,"indent":0,"parameters":[]}],"moveFrequency":3,"moveRoute":{"list":[{"code":0,"parameters":[]}],"repeat":true,"skippable":false,"wait":false},"moveSpeed":3,"moveType":0,"priorityType":0,"stepAnime":false,"through":false,"trigger":0,"walkAnime":true}],"x":6,"y":8}
]
}